testbench.vcd
$date
   Fri Jan 17 19:52:49 2025 UTC
$end
$version
    MyHDL 0.11.51
$end
$timescale
    1ns
$end

  $scope module testbench $end
    $var reg 1 ! baudrate_clk $end
    $var reg 1 " busy $end
    $var reg 1 # clk $end
    $var reg 8 $ data_rx $end
    $var reg 8 % data_tx $end
    $var reg 1 & rx $end
    $var reg 1 ' start $end
    $var reg 1 ( tx $end
    $var reg 1 ) valid $end
    $scope module BaudRateGenerator0 $end
      $var reg 1 # clk $end
      $var reg 1 ! baudrate_clk $end
      $var reg 4 * count $end
    $upscope $end
    $scope module UARTTransmitter0 $end
      $var reg 1 # clk $end
      $var reg 1 ! baudrate_clk $end
      $var reg 4 + bit_count $end
      $var reg 1 " busy $end
      $var reg 8 % data $end
      $var reg 1 ' start $end
      $var reg 1 ( tx $end
      $var reg 10 , tx_reg $end
    $upscope $end
    $scope module UARTReceiver0 $end
      $var reg 1 # clk $end
      $var reg 1 ! baudrate_clk $end
      $var reg 4 - bit_count $end
      $var reg 8 $ data $end
      $var reg 1 . receiving $end
      $var reg 1 & rx $end
      $var reg 8 / shift_reg $end
      $var reg 1 ) valid $end
    $upscope $end
  $upscope $end

$enddefinitions $end

$dumpvars
0!
0"
0#
b00000000 $
b01011010 %
1&
0'
1(
0)
b0000 *
b0000 +
b0000000000 ,
b0000 -
0.
b00000000 /
$end
#1
#2
#3
#4
#5
1#
b0001 *
#6
#7
#8
#9
#10
0#
#11
#12
#13
#14
#15
1#
b0010 *
#16
#17
#18
#19
#20
0#
1'
#21
#22
#23
#24
#25
1#
0'
b0011 *
b1010110100 ,
1"
#26
#27
#28
#29
#30
0#
#31
#32
#33
#34
#35
1#
b0100 *
#36
#37
#38
#39
#40
0#
#41
#42
#43
#44
#45
1#
b0101 *
#46
#47
#48
#49
#50
0#
#51
#52
#53
#54
#55
1#
b0110 *
#56
#57
#58
#59
#60
0#
#61
#62
#63
#64
#65
1#
b0111 *
#66
#67
#68
#69
#70
0#
#71
#72
#73
#74
#75
1#
b1000 *
#76
#77
#78
#79
#80
0#
#81
#82
#83
#84
#85
1#
b1001 *
#86
#87
#88
#89
#90
0#
#91
#92
#93
#94
#95
1#
b1010 *
#96
#97
#98
#99
#100
0#
#101
#102
#103
#104
#105
1#
b1011 *
#106
#107
#108
#109
#110
0#
#111
#112
#113
#114
#115
1#
b1100 *
#116
#117
#118
#119
#120
0#
#121
#122
#123
#124
#125
1#
b1101 *
#126
#127
#128
#129
#130
0#
#131
#132
#133
#134
#135
1#
b1110 *
#136
#137
#138
#139
#140
0#
#141
#142
#143
#144
#145
1#
b1111 *
#146
#147
#148
#149
#150
0#
#151
#152
#153
#154
#155
1#
b0000 *
1!
#156
#157
#158
#159
#160
0#
#161
#162
#163
#164
#165
1#
b0001 *
0(
b0101011010 ,
b0001 +
#166
0&
#167
#168
#169
#170
0#
#171
#172
#173
#174
#175
1#
1.
b0010101101 ,
b0010 +
b0010 *
#176
#177
#178
#179
#180
0#
#181
#182
#183
#184
#185
1#
b0011 *
1(
b0001010110 ,
b0011 +
b0001 -
#186
1&
#187
#188
#189
#190
0#
#191
#192
#193
#194
#195
1#
b10000000 /
b0010 -
0(
b0000101011 ,
b0100 +
b0100 *
#196
0&
#197
#198
#199
#200
0#
#201
#202
#203
#204
#205
1#
b0101 *
1(
b0000010101 ,
b0101 +
b01000000 /
b0011 -
#206
1&
#207
#208
#209
#210
0#
#211
#212
#213
#214
#215
1#
b10100000 /
b0100 -
b0000001010 ,
b0110 +
b0110 *
#216
#217
#218
#219
#220
0#
#221
#222
#223
#224
#225
1#
b0111 *
0(
b0000000101 ,
b0111 +
b11010000 /
b0101 -
#226
0&
#227
#228
#229
#230
0#
#231
#232
#233
#234
#235
1#
b01101000 /
b0110 -
1(
b0000000010 ,
b1000 +
b1000 *
#236
1&
#237
#238
#239
#240
0#
#241
#242
#243
#244
#245
1#
b1001 *
0(
b0000000001 ,
b1001 +
b10110100 /
b0111 -
#246
0&
#247
#248
#249
#250
0#
#251
#252
#253
#254
#255
1#
b01011010 /
b1000 -
1(
b0000000000 ,
b1010 +
b1010 *
#256
1&
#257
#258
#259
#260
0#
#261
#262
#263
#264
#265
1#
b1011 *
0"
b01011010 $
1)
0.
